c4_CH2.csv

X,CH2,Start,Increment,
0,3.800000e-04,-1.600001e-07,1.000000e-09,
1,3.800000e-04,
2,7.600000e-04,
3,-3.800000e-04,
4,3.800000e-04,
5,7.600000e-04,
6,-3.800000e-04,
7,-3.800000e-04,
8,0.000000e+00,
9,0.000000e+00,
10,3.800000e-04,
11,0.000000e+00,
12,-3.800000e-04,
13,-3.800000e-04,
14,3.800000e-04,
15,0.000000e+00,
16,3.800000e-04,
17,0.000000e+00,
18,-3.800000e-04,
19,3.800000e-04,
20,3.800000e-04,
21,0.000000e+00,
22,1.140000e-03,
23,7.600000e-04,
24,3.800000e-04,
25,3.800000e-04,
26,3.800000e-04,
27,-3.800000e-04,
28,0.000000e+00,
29,-7.600000e-04,
30,0.000000e+00,
31,-3.800000e-04,
32,0.000000e+00,
33,0.000000e+00,
34,3.800000e-04,
35,3.800000e-04,
36,0.000000e+00,
37,-3.800000e-04,
38,0.000000e+00,
39,0.000000e+00,
40,7.600000e-04,
41,3.800000e-04,
42,7.600000e-04,
43,1.140000e-03,
44,3.800000e-04,
45,0.000000e+00,
46,3.800000e-04,
47,0.000000e+00,
48,-3.800000e-04,
49,-3.800000e-04,
50,-3.800000e-04,
51,-3.800000e-04,
52,7.600000e-04,
53,7.600000e-04,
54,1.140000e-03,
55,0.000000e+00,
56,-3.800000e-04,
57,-7.600000e-04,
58,-1.520000e-03,
59,-1.140000e-03,
60,-3.800000e-04,
61,3.800000e-04,
62,1.140000e-03,
63,1.140000e-03,
64,1.140000e-03,
65,3.800000e-04,
66,3.800000e-04,
67,3.800000e-04,
68,0.000000e+00,
69,-3.800000e-04,
70,-7.600000e-04,
71,-7.600000e-04,
72,0.000000e+00,
73,3.800000e-04,
74,7.600000e-04,
75,7.600000e-04,
76,7.600000e-04,
77,3.800000e-04,
78,-3.800000e-04,
79,-7.600000e-04,
80,-7.600000e-04,
81,-7.600000e-04,
82,0.000000e+00,
83,0.000000e+00,
84,3.800000e-04,
85,3.800000e-04,
86,7.600000e-04,
87,3.800000e-04,
88,7.600000e-04,
89,7.600000e-04,
90,7.600000e-04,
91,3.800000e-04,
92,7.600000e-04,
93,3.800000e-04,
94,0.000000e+00,
95,-3.800000e-04,
96,-3.800000e-04,
97,-7.600000e-04,
98,-1.140000e-03,
99,-7.600000e-04,
100,-3.800000e-04,
101,3.800000e-04,
102,1.140000e-03,
103,1.520000e-03,
104,1.140000e-03,
105,7.600000e-04,
106,0.000000e+00,
107,-7.600000e-04,
108,-3.800000e-04,
109,-7.600000e-04,
110,-3.800000e-04,
111,3.800000e-04,
112,3.800000e-04,
113,0.000000e+00,
114,7.600000e-04,
115,7.600000e-04,
116,1.140000e-03,
117,1.140000e-03,
118,0.000000e+00,
119,-3.800000e-04,
120,0.000000e+00,
121,0.000000e+00,
122,0.000000e+00,
123,0.000000e+00,
124,0.000000e+00,
125,0.000000e+00,
126,3.800000e-04,
127,7.600000e-04,
128,3.800000e-04,
129,-3.800000e-04,
130,0.000000e+00,
131,0.000000e+00,
132,7.600000e-04,
133,7.600000e-04,
134,7.600000e-04,
135,3.800000e-04,
136,7.600000e-04,
137,0.000000e+00,
138,0.000000e+00,
139,3.800000e-04,
140,0.000000e+00,
141,0.000000e+00,
142,-3.800000e-04,
143,-7.600000e-04,
144,0.000000e+00,
145,-3.800000e-04,
146,7.600000e-04,
147,3.800000e-04,
148,0.000000e+00,
149,0.000000e+00,
150,-3.800000e-04,
151,-3.800000e-04,
152,1.140000e-03,
153,3.420000e-03,
154,7.220000e-03,
155,1.406000e-02,
156,2.470000e-02,
157,3.990000e-02,
158,4.864000e-02,
159,4.864000e-02,
160,4.864000e-02,
161,4.864000e-02,
162,4.864000e-02,
163,4.864000e-02,
164,4.864000e-02,
165,4.864000e-02,
166,4.864000e-02,
167,4.864000e-02,
168,2.204000e-02,
169,1.102000e-02,
170,-5.320000e-03,
171,-6.840000e-03,
172,6.080000e-03,
173,2.888000e-02,
174,4.864000e-02,
175,4.864000e-02,
176,4.864000e-02,
177,4.864000e-02,
178,4.864000e-02,
179,4.864000e-02,
180,4.864000e-02,
181,4.864000e-02,
182,4.864000e-02,
183,4.864000e-02,
184,4.256000e-02,
185,3.458000e-02,
186,3.382000e-02,
187,4.066000e-02,
188,4.864000e-02,
189,4.864000e-02,
190,4.864000e-02,
191,4.864000e-02,
192,4.864000e-02,
193,4.864000e-02,
194,4.864000e-02,
195,4.560000e-02,
196,3.876000e-02,
197,3.610000e-02,
198,3.724000e-02,
199,4.294000e-02,
200,4.864000e-02,
201,4.864000e-02,
202,4.864000e-02,
203,4.864000e-02,
204,4.864000e-02,
205,4.864000e-02,
206,4.864000e-02,
207,4.864000e-02,
208,4.864000e-02,
209,4.864000e-02,
210,4.864000e-02,
211,4.864000e-02,
212,4.864000e-02,
213,4.864000e-02,
214,4.864000e-02,
215,4.712000e-02,
216,4.104000e-02,
217,3.572000e-02,
218,3.230000e-02,
219,3.002000e-02,
220,3.154000e-02,
221,3.572000e-02,
222,4.256000e-02,
223,4.864000e-02,
224,4.864000e-02,
225,4.864000e-02,
226,4.864000e-02,
227,4.864000e-02,
228,4.864000e-02,
229,4.864000e-02,
230,4.864000e-02,
231,4.864000e-02,
232,4.484000e-02,
233,4.180000e-02,
234,4.066000e-02,
235,4.066000e-02,
236,4.332000e-02,
237,4.560000e-02,
238,4.826000e-02,
239,4.864000e-02,
240,4.864000e-02,
241,4.864000e-02,
242,4.826000e-02,
243,4.636000e-02,
244,4.522000e-02,
245,4.370000e-02,
246,4.332000e-02,
247,4.332000e-02,
248,4.370000e-02,
249,4.332000e-02,
250,4.294000e-02,
251,4.066000e-02,
252,3.914000e-02,
253,3.724000e-02,
254,3.648000e-02,
255,3.610000e-02,
256,3.724000e-02,
257,3.914000e-02,
258,4.180000e-02,
259,4.560000e-02,
260,4.826000e-02,
261,4.864000e-02,
262,4.864000e-02,
263,4.864000e-02,
264,4.788000e-02,
265,4.484000e-02,
266,4.104000e-02,
267,3.648000e-02,
268,3.458000e-02,
269,3.192000e-02,
270,3.154000e-02,
271,3.154000e-02,
272,3.230000e-02,
273,3.306000e-02,
274,3.458000e-02,
275,3.496000e-02,
276,3.572000e-02,
277,3.572000e-02,
278,3.610000e-02,
279,3.610000e-02,
280,3.686000e-02,
281,3.724000e-02,
282,3.838000e-02,
283,3.914000e-02,
284,3.990000e-02,
285,3.990000e-02,
286,4.028000e-02,
287,3.952000e-02,
288,3.876000e-02,
289,3.648000e-02,
290,3.496000e-02,
291,3.268000e-02,
292,3.002000e-02,
293,2.812000e-02,
294,2.736000e-02,
295,2.660000e-02,
296,2.774000e-02,
297,2.850000e-02,
298,3.040000e-02,
299,3.192000e-02,
300,3.306000e-02,
301,3.420000e-02,
302,3.458000e-02,
303,3.458000e-02,
304,3.420000e-02,
305,3.344000e-02,
306,3.268000e-02,
307,3.154000e-02,
308,3.116000e-02,
309,3.040000e-02,
310,3.078000e-02,
311,3.040000e-02,
312,3.002000e-02,
313,2.850000e-02,
314,2.850000e-02,
315,2.774000e-02,
316,2.736000e-02,
317,2.660000e-02,
318,2.622000e-02,
319,2.584000e-02,
320,2.660000e-02,
321,2.660000e-02,
322,2.812000e-02,
323,2.888000e-02,
324,3.040000e-02,
325,3.002000e-02,
326,3.078000e-02,
327,3.002000e-02,
328,3.040000e-02,
329,2.964000e-02,
330,2.812000e-02,
331,2.660000e-02,
332,2.470000e-02,
333,2.356000e-02,
334,2.280000e-02,
335,2.204000e-02,
336,2.280000e-02,
337,2.280000e-02,
338,2.318000e-02,
339,2.394000e-02,
340,2.508000e-02,
341,2.622000e-02,
342,2.660000e-02,
343,2.698000e-02,
344,2.736000e-02,
345,2.622000e-02,
346,2.622000e-02,
347,2.546000e-02,
348,2.546000e-02,
349,2.546000e-02,
350,2.546000e-02,
351,2.470000e-02,
352,2.432000e-02,
353,2.242000e-02,
354,2.204000e-02,
355,2.090000e-02,
356,2.090000e-02,
357,2.052000e-02,
358,2.014000e-02,
359,1.976000e-02,
360,2.052000e-02,
361,2.090000e-02,
362,2.204000e-02,
363,2.280000e-02,
364,2.356000e-02,
365,2.356000e-02,
366,2.394000e-02,
367,2.318000e-02,
368,2.280000e-02,
369,2.280000e-02,
370,2.242000e-02,
371,2.166000e-02,
372,2.166000e-02,
373,2.014000e-02,
374,1.976000e-02,
375,1.900000e-02,
376,1.938000e-02,
377,1.976000e-02,
378,1.938000e-02,
379,1.938000e-02,
380,1.938000e-02,
381,1.824000e-02,
382,1.862000e-02,
383,1.824000e-02,
384,1.862000e-02,
385,1.862000e-02,
386,1.900000e-02,
387,1.862000e-02,
388,1.938000e-02,
389,1.976000e-02,
390,2.090000e-02,
391,2.052000e-02,
392,2.090000e-02,
393,2.052000e-02,
394,1.900000e-02,
395,1.824000e-02,
396,1.786000e-02,
397,1.710000e-02,
398,1.748000e-02,
399,1.672000e-02,
400,1.672000e-02,
401,1.596000e-02,
402,1.596000e-02,
403,1.596000e-02,
404,1.672000e-02,
405,1.672000e-02,
406,1.634000e-02,
407,1.710000e-02,
408,1.748000e-02,
409,1.786000e-02,
410,1.748000e-02,
411,1.672000e-02,
412,1.710000e-02,
413,1.710000e-02,
414,1.672000e-02,
415,1.672000e-02,
416,1.710000e-02,
417,1.634000e-02,
418,1.634000e-02,
419,1.634000e-02,
420,1.634000e-02,
421,1.558000e-02,
422,1.558000e-02,
423,1.444000e-02,
424,1.406000e-02,
425,1.330000e-02,
426,1.330000e-02,
427,1.330000e-02,
428,1.330000e-02,
429,1.406000e-02,
430,1.558000e-02,
431,1.558000e-02,
432,1.596000e-02,
433,1.596000e-02,
434,1.596000e-02,
435,1.558000e-02,
436,1.558000e-02,
437,1.520000e-02,
438,1.444000e-02,
439,1.406000e-02,
440,1.368000e-02,
441,1.292000e-02,
442,1.292000e-02,
443,1.330000e-02,
444,1.292000e-02,
445,1.292000e-02,
446,1.330000e-02,
447,1.292000e-02,
448,1.292000e-02,
449,1.292000e-02,
450,1.330000e-02,
451,1.292000e-02,
452,1.254000e-02,
453,1.292000e-02,
454,1.254000e-02,
455,1.292000e-02,
456,1.368000e-02,
457,1.444000e-02,
458,1.444000e-02,
459,1.444000e-02,
460,1.330000e-02,
461,1.292000e-02,
462,1.178000e-02,
463,1.140000e-02,
464,1.178000e-02,
465,1.102000e-02,
466,1.102000e-02,
467,1.064000e-02,
468,1.102000e-02,
469,1.216000e-02,
470,1.216000e-02,
471,1.178000e-02,
472,1.178000e-02,
473,1.140000e-02,
474,1.140000e-02,
475,1.102000e-02,
476,1.140000e-02,
477,1.140000e-02,
478,1.178000e-02,
479,1.178000e-02,
480,1.178000e-02,
481,1.178000e-02,
482,1.178000e-02,
483,1.140000e-02,
484,1.140000e-02,
485,1.102000e-02,
486,1.140000e-02,
487,1.102000e-02,
488,1.064000e-02,
489,1.026000e-02,
490,9.880000e-03,
491,9.880000e-03,
492,9.880000e-03,
493,9.880000e-03,
494,1.026000e-02,
495,1.064000e-02,
496,1.064000e-02,
497,1.064000e-02,
498,1.102000e-02,
499,1.064000e-02,
500,1.064000e-02,
501,9.880000e-03,
502,9.880000e-03,
503,9.500000e-03,
504,9.880000e-03,
505,9.500000e-03,
506,9.880000e-03,
507,9.120000e-03,
508,9.880000e-03,
509,9.880000e-03,
510,9.500000e-03,
511,9.120000e-03,
512,8.739999e-03,
513,9.120000e-03,
514,8.739999e-03,
515,9.500000e-03,
516,9.500000e-03,
517,9.500000e-03,
518,9.120000e-03,
519,9.500000e-03,
520,8.739999e-03,
521,8.359999e-03,
522,8.359999e-03,
523,8.359999e-03,
524,8.739999e-03,
525,9.120000e-03,
526,8.739999e-03,
527,8.359999e-03,
528,8.739999e-03,
529,8.359999e-03,
530,9.120000e-03,
531,9.120000e-03,
532,8.739999e-03,
533,7.600000e-03,
534,7.600000e-03,
535,7.220000e-03,
536,7.979999e-03,
537,8.359999e-03,
538,8.739999e-03,
539,8.359999e-03,
540,8.739999e-03,
541,7.979999e-03,
542,7.979999e-03,
543,7.600000e-03,
544,7.979999e-03,
545,8.739999e-03,
546,7.979999e-03,
547,7.979999e-03,
548,7.600000e-03,
549,6.840000e-03,
550,7.220000e-03,
551,6.840000e-03,
552,7.220000e-03,
553,6.840000e-03,
554,7.220000e-03,
555,7.600000e-03,
556,7.600000e-03,
557,8.359999e-03,
558,8.359999e-03,
559,7.979999e-03,
560,7.600000e-03,
561,6.840000e-03,
562,6.840000e-03,
563,6.460000e-03,
564,6.840000e-03,
565,6.840000e-03,
566,7.220000e-03,
567,7.220000e-03,
568,7.220000e-03,
569,7.220000e-03,
570,7.600000e-03,
571,7.600000e-03,
572,7.600000e-03,
573,7.220000e-03,
574,6.840000e-03,
575,6.080000e-03,
576,5.700000e-03,
577,5.320000e-03,
578,5.700000e-03,
579,5.700000e-03,
580,6.460000e-03,
581,6.840000e-03,
582,7.220000e-03,
583,6.840000e-03,
584,6.840000e-03,
585,6.840000e-03,
586,6.460000e-03,
587,6.460000e-03,
588,6.460000e-03,
589,6.080000e-03,
590,6.080000e-03,
591,6.080000e-03,
592,6.080000e-03,
593,4.940000e-03,
594,5.320000e-03,
595,5.320000e-03,
596,5.700000e-03,
597,6.460000e-03,
598,6.840000e-03,
599,7.220000e-03,
600,7.220000e-03,
601,6.460000e-03,
602,5.320000e-03,
603,5.320000e-03,
604,4.560000e-03,
605,4.560000e-03,
606,4.180000e-03,
607,4.560000e-03,
608,5.320000e-03,
609,6.460000e-03,
610,7.979999e-03,
611,7.979999e-03,
612,7.979999e-03,
613,6.840000e-03,
614,5.320000e-03,
615,3.800000e-03,
616,3.420000e-03,
617,3.040000e-03,
618,3.420000e-03,
619,3.800000e-03,
620,4.940000e-03,
621,5.320000e-03,
622,6.460000e-03,
623,6.840000e-03,
624,6.840000e-03,
625,6.460000e-03,
626,5.700000e-03,
627,4.560000e-03,
628,4.180000e-03,
629,4.180000e-03,
630,5.320000e-03,
631,6.080000e-03,
632,6.080000e-03,
633,5.320000e-03,
634,4.560000e-03,
635,3.800000e-03,
636,3.420000e-03,
637,4.180000e-03,
638,4.560000e-03,
639,5.320000e-03,
640,6.080000e-03,
641,6.080000e-03,
642,6.460000e-03,
643,5.320000e-03,
644,4.560000e-03,
645,4.180000e-03,
646,3.800000e-03,
647,4.180000e-03,
648,3.800000e-03,
649,3.800000e-03,
650,4.560000e-03,
651,4.940000e-03,
652,5.700000e-03,
653,5.700000e-03,
654,4.940000e-03,
655,3.800000e-03,
656,3.800000e-03,
657,3.040000e-03,
658,4.180000e-03,
659,3.800000e-03,
660,4.180000e-03,
661,4.940000e-03,
662,4.940000e-03,
663,5.320000e-03,
664,4.560000e-03,
665,4.560000e-03,
666,3.800000e-03,
667,3.800000e-03,
668,4.180000e-03,
669,3.420000e-03,
670,4.180000e-03,
671,4.180000e-03,
672,5.320000e-03,
673,5.700000e-03,
674,5.700000e-03,
675,4.940000e-03,
676,3.800000e-03,
677,1.900000e-03,
678,3.800000e-04,
679,0.000000e+00,
680,1.900000e-03,
681,3.800000e-03,
682,6.460000e-03,
683,8.359999e-03,
684,8.739999e-03,
685,8.359999e-03,
686,6.840000e-03,
687,4.180000e-03,
688,1.900000e-03,
689,3.800000e-04,
690,-7.600000e-04,
691,-7.600000e-04,
692,7.600000e-04,
693,2.660000e-03,
694,4.560000e-03,
695,6.460000e-03,
696,7.220000e-03,
697,6.840000e-03,
698,5.320000e-03,
699,3.800000e-03,
700,2.660000e-03,
701,1.900000e-03,
702,2.280000e-03,
703,3.040000e-03,
704,4.180000e-03,
705,4.940000e-03,
706,4.940000e-03,
707,4.560000e-03,
708,3.800000e-03,
709,3.040000e-03,
710,2.280000e-03,
711,2.660000e-03,
712,1.900000e-03,
713,2.660000e-03,
714,3.040000e-03,
715,3.420000e-03,
716,3.800000e-03,
717,3.040000e-03,
718,4.180000e-03,
719,4.560000e-03,
720,5.320000e-03,
721,4.940000e-03,
722,4.560000e-03,
723,3.800000e-03,
724,3.420000e-03,
725,2.660000e-03,
726,2.280000e-03,
727,1.520000e-03,
728,2.280000e-03,
729,2.660000e-03,
730,3.420000e-03,
731,3.800000e-03,
732,3.800000e-03,
733,4.180000e-03,
734,3.800000e-03,
735,3.420000e-03,
736,3.420000e-03,
737,3.040000e-03,
738,2.660000e-03,
739,2.280000e-03,
740,3.420000e-03,
741,2.660000e-03,
742,3.420000e-03,
743,3.040000e-03,
744,2.660000e-03,
745,2.660000e-03,
746,2.660000e-03,
747,2.660000e-03,
748,3.800000e-03,
749,3.800000e-03,
750,3.800000e-03,
751,3.800000e-03,
752,3.800000e-03,
753,3.800000e-03,
754,3.420000e-03,
755,2.280000e-03,
756,1.900000e-03,
757,1.140000e-03,
758,1.140000e-03,
759,1.520000e-03,
760,2.660000e-03,
761,3.420000e-03,
762,4.180000e-03,
763,4.560000e-03,
764,4.180000e-03,
765,3.800000e-03,
766,3.040000e-03,
767,3.040000e-03,
768,2.660000e-03,
769,2.280000e-03,
770,1.900000e-03,
771,2.280000e-03,
772,2.660000e-03,
773,3.420000e-03,
774,3.800000e-03,
775,3.420000e-03,
776,3.420000e-03,
777,2.280000e-03,
778,1.900000e-03,
779,1.900000e-03,
780,1.520000e-03,
781,1.520000e-03,
782,2.660000e-03,
783,3.040000e-03,
784,3.800000e-03,
785,4.560000e-03,
786,4.180000e-03,
787,3.800000e-03,
788,3.040000e-03,
789,1.900000e-03,
790,1.900000e-03,
791,1.900000e-03,
792,1.900000e-03,
793,1.900000e-03,
794,2.280000e-03,
795,1.900000e-03,
796,2.280000e-03,
797,3.040000e-03,
798,3.040000e-03,
799,2.660000e-03,
800,2.660000e-03,
801,2.280000e-03,
802,2.660000e-03,
803,2.660000e-03,
804,2.280000e-03,
805,2.660000e-03,
806,3.420000e-03,
807,3.040000e-03,
808,3.040000e-03,
809,2.280000e-03,
810,2.660000e-03,
811,2.280000e-03,
812,2.280000e-03,
813,1.900000e-03,
814,1.900000e-03,
815,1.520000e-03,
816,1.520000e-03,
817,2.280000e-03,
818,1.900000e-03,
819,2.280000e-03,
820,3.040000e-03,
821,3.040000e-03,
822,3.420000e-03,
823,3.040000e-03,
824,2.660000e-03,
825,2.660000e-03,
826,2.280000e-03,
827,2.280000e-03,
828,2.660000e-03,
829,2.280000e-03,
830,2.280000e-03,
831,1.900000e-03,
832,2.280000e-03,
833,1.520000e-03,
834,2.280000e-03,
835,1.900000e-03,
836,1.900000e-03,
837,1.900000e-03,
838,2.660000e-03,
839,2.280000e-03,
840,2.660000e-03,
841,3.040000e-03,
842,2.660000e-03,
843,2.280000e-03,
844,2.280000e-03,
845,1.520000e-03,
846,1.900000e-03,
847,1.900000e-03,
848,2.660000e-03,
849,3.040000e-03,
850,3.800000e-03,
851,3.040000e-03,
852,2.660000e-03,
853,2.280000e-03,
854,2.280000e-03,
855,1.900000e-03,
856,1.900000e-03,
857,1.520000e-03,
858,1.140000e-03,
859,1.520000e-03,
860,1.900000e-03,
861,1.900000e-03,
862,2.280000e-03,
863,3.040000e-03,
864,3.040000e-03,
865,2.280000e-03,
866,2.280000e-03,
867,1.520000e-03,
868,1.520000e-03,
869,1.900000e-03,
870,2.660000e-03,
871,2.660000e-03,
872,1.900000e-03,
873,1.520000e-03,
874,1.140000e-03,
875,1.520000e-03,
876,2.280000e-03,
877,3.040000e-03,
878,3.420000e-03,
879,2.660000e-03,
880,3.040000e-03,
881,1.900000e-03,
882,1.140000e-03,
883,3.800000e-04,
884,3.800000e-04,
885,0.000000e+00,
886,7.600000e-04,
887,1.140000e-03,
888,2.280000e-03,
889,3.420000e-03,
890,4.180000e-03,
891,4.560000e-03,
892,4.180000e-03,
893,3.420000e-03,
894,2.280000e-03,
895,3.800000e-04,
896,-7.600000e-04,
897,-7.600000e-04,
898,-3.800000e-04,
899,7.600000e-04,
900,1.140000e-03,
901,2.280000e-03,
902,3.040000e-03,
903,3.420000e-03,
904,3.040000e-03,
905,3.040000e-03,
906,2.280000e-03,
907,1.900000e-03,
908,1.140000e-03,
909,3.800000e-04,
910,1.900000e-03,
911,2.660000e-03,
912,4.180000e-03,
913,4.560000e-03,
914,3.800000e-03,
915,2.280000e-03,
916,1.140000e-03,
917,-1.140000e-03,
918,-2.280000e-03,
919,-2.280000e-03,
920,-1.520000e-03,
921,7.600000e-04,
922,3.420000e-03,
923,5.700000e-03,
924,7.220000e-03,
925,6.840000e-03,
926,6.080000e-03,
927,3.800000e-03,
928,1.140000e-03,
929,-1.520000e-03,
930,-2.660000e-03,
931,-3.040000e-03,
932,-1.900000e-03,
933,0.000000e+00,
934,2.660000e-03,
935,4.560000e-03,
936,5.700000e-03,
937,4.940000e-03,
938,3.420000e-03,
939,2.280000e-03,
940,1.140000e-03,
941,-7.600000e-04,
942,-3.800000e-04,
943,-7.600000e-04,
944,7.600000e-04,
945,1.520000e-03,
946,2.280000e-03,
947,2.660000e-03,
948,2.660000e-03,
949,2.660000e-03,
950,2.280000e-03,
951,1.900000e-03,
952,2.280000e-03,
953,7.600000e-04,
954,1.520000e-03,
955,7.600000e-04,
956,1.140000e-03,
957,7.600000e-04,
958,7.600000e-04,
959,1.140000e-03,
960,1.900000e-03,
961,2.280000e-03,
962,3.040000e-03,
963,3.040000e-03,
964,3.040000e-03,
965,1.900000e-03,
966,1.900000e-03,
967,7.600000e-04,
968,0.000000e+00,
969,0.000000e+00,
970,7.600000e-04,
971,1.140000e-03,
972,1.900000e-03,
973,2.280000e-03,
974,3.040000e-03,
975,3.040000e-03,
976,3.040000e-03,
977,2.280000e-03,
978,1.140000e-03,
979,0.000000e+00,
980,-7.600000e-04,
981,-7.600000e-04,
982,0.000000e+00,
983,7.600000e-04,
984,2.280000e-03,
985,2.280000e-03,
986,3.420000e-03,
987,3.040000e-03,
988,3.040000e-03,
989,2.660000e-03,
990,1.900000e-03,
991,1.140000e-03,
992,7.600000e-04,
993,1.140000e-03,
994,1.140000e-03,
995,1.520000e-03,
996,1.900000e-03,
997,1.520000e-03,
998,1.520000e-03,
999,1.520000e-03,
1000,1.520000e-03,
1001,1.520000e-03,
1002,1.520000e-03,
1003,1.140000e-03,
1004,7.600000e-04,
1005,1.140000e-03,
1006,1.140000e-03,
1007,1.900000e-03,
1008,2.280000e-03,
1009,2.660000e-03,
1010,2.660000e-03,
1011,2.280000e-03,
1012,1.900000e-03,
1013,1.520000e-03,
1014,1.520000e-03,
1015,3.800000e-04,
1016,3.800000e-04,
1017,0.000000e+00,
1018,7.600000e-04,
1019,1.140000e-03,
1020,1.520000e-03,
1021,1.900000e-03,
1022,1.520000e-03,
1023,2.280000e-03,
1024,1.900000e-03,
1025,1.140000e-03,
1026,1.140000e-03,
1027,1.140000e-03,
1028,1.520000e-03,
1029,1.520000e-03,
1030,1.900000e-03,
1031,1.520000e-03,
1032,1.140000e-03,
1033,1.900000e-03,
1034,1.520000e-03,
1035,1.520000e-03,
1036,1.900000e-03,
1037,1.520000e-03,
1038,1.520000e-03,
1039,1.900000e-03,
1040,1.520000e-03,
1041,1.140000e-03,
1042,1.140000e-03,
1043,3.800000e-04,
1044,7.600000e-04,
1045,7.600000e-04,
1046,1.140000e-03,
1047,1.140000e-03,
1048,2.280000e-03,
1049,2.280000e-03,
1050,2.660000e-03,
1051,2.660000e-03,
1052,1.900000e-03,
1053,1.520000e-03,
1054,1.520000e-03,
1055,7.600000e-04,
1056,7.600000e-04,
1057,0.000000e+00,
1058,0.000000e+00,
1059,7.600000e-04,
1060,1.140000e-03,
1061,1.140000e-03,
1062,1.900000e-03,
1063,1.520000e-03,
1064,1.520000e-03,
1065,2.280000e-03,
1066,1.900000e-03,
1067,1.520000e-03,
1068,1.520000e-03,
1069,1.140000e-03,
1070,1.140000e-03,
1071,1.140000e-03,
1072,7.600000e-04,
1073,1.140000e-03,
1074,1.520000e-03,
1075,1.520000e-03,
1076,1.520000e-03,
1077,1.520000e-03,
1078,1.140000e-03,
1079,1.520000e-03,
1080,1.140000e-03,
1081,1.140000e-03,
1082,1.140000e-03,
1083,1.140000e-03,
1084,1.140000e-03,
1085,1.520000e-03,
1086,2.280000e-03,
1087,2.280000e-03,
1088,2.660000e-03,
1089,1.520000e-03,
1090,1.520000e-03,
1091,1.140000e-03,
1092,1.140000e-03,
1093,1.140000e-03,
1094,1.140000e-03,
1095,7.600000e-04,
1096,7.600000e-04,
1097,3.800000e-04,
1098,7.600000e-04,
1099,1.140000e-03,
1100,1.520000e-03,
1101,1.900000e-03,
1102,1.900000e-03,
1103,1.520000e-03,
1104,1.520000e-03,
